<svg width="120" height="36" xmlns="http://www.w3.org/2000/svg" viewBox="0 0 120 36">
  <path d="M64.79,11.53A9,9,0,0,0,59.7,9.87C54.88,9.87,52,13.24,52,17.7c0,4.82,3.4,8.06,7.66,8.06a8.9,8.9,0,0,0,4.93-1.42l1.05,1.58a11.67,11.67,0,0,1-6.12,1.74c-7,0-10.5-4.65-10.5-9.9C49.06,13,52.9,8,59.89,8a9.65,9.65,0,0,1,6,1.94Z" fill="#002d62"></path>
  <path d="M69.48,15.42l1-1a3.49,3.49,0,0,1,2.09-1,3.47,3.47,0,0,1,2.31,1.34l-1.14,1.58a4.42,4.42,0,0,0-1.87-.58c-1.28,0-2.34,1.26-2.34,4.28v7.31H67V13.73h2.45Z" fill="#002d62"></path>
  <path d="M74 20.37a6.87 6.87 0 1 1 13.73 0c0 4.22-2.76 7.29-6.88 7.29S74 24.59 74 20.37m2.7 0c0 2.56.89 5.55 4.15 5.55s4.18-3 4.18-5.55-1-5.22-4.18-5.22S76.66 17.92 76.66 20.37" fill="#002d62"></path>
  <path d="m98.77 13.73c1.37 3.24 2.73 6.5 4.07 10.39 1.09-4 2.23-7.31 3.34-10.66l2.31.38-4.9 13.49h-1.75c-1.39-3.37-2.81-6.74-4.18-10.61-1.34 3.87-2.66 7.28-4.07 10.61h-1.59l-4.87-13.27 2.45-.6c1.15 3.35 2.32 6.66 3.43 10.66 1.34-3.89 2.71-7.15 4.07-10.39" fill="#002d62"></path>
  <path d="M110.58,20.7a5,5,0,0,0,4.71,5.22,7,7,0,0,0,3.81-1.17l.73,1.33a8.51,8.51,0,0,1-4.63,1.58c-4.34,0-7.21-2.61-7.21-7.4a6.47,6.47,0,0,1,6.6-6.86c4.23,0,5.65,3.73,5.38,7.3Zm7.1-1.64c0-2.12-.92-3.91-3.11-3.91a3.8,3.8,0,0,0-3.82,3.91Z" fill="#002d62"></path>
  <path d="M21.32.18A.28.28,0,0,0,21.08,0a.31.31,0,0,0-.25.17L.09,34.81C0,34.93,0,35,0,35s.06,0,.15-.14L20.67,10.27c.09-.1.14-.15.15-.14s0,.07-.08.19L6.53,34.81c-.06.12-.09.18-.08.19s.07,0,.15-.14L23.41,14.72c.09-.11.14-.15.16-.14s0,.07-.08.19l-11,20c-.06.12-.09.19-.07.2s.06,0,.15-.14L25.93,18.8a.38.38,0,0,1,.31-.16.4.4,0,0,1,.32.16l13,16.05c.09.11.14.15.15.14s0-.07-.07-.19Z" fill="#fdb913"></path>
</svg>
