<?xml version="1.0" encoding="utf-8"?>
<svg xmlns="http://www.w3.org/2000/svg" xmlns:xlink="http://www.w3.org/1999/xlink" style="margin: auto; background: rgba(255, 255, 255, 0) none repeat scroll 0% 0%; display: block; shape-rendering: crispedges;" width="197px" height="197px" viewBox="0 0 100 100" preserveAspectRatio="xMidYMid">
<circle cx="50" cy="50" r="33" stroke-width="3" stroke="#007be8" stroke-dasharray="51.83627878423159 51.83627878423159" fill="none" stroke-linecap="round">
  <animateTransform attributeName="transform" type="rotate" dur="1.2987012987012987s" repeatCount="indefinite" keyTimes="0;1" values="0 50 50;360 50 50"></animateTransform>
</circle>
<circle cx="50" cy="50" r="29" stroke-width="3" stroke="#f3a005" stroke-dasharray="45.553093477052 45.553093477052" stroke-dashoffset="45.553093477052" fill="none" stroke-linecap="round">
  <animateTransform attributeName="transform" type="rotate" dur="1.2987012987012987s" repeatCount="indefinite" keyTimes="0;1" values="0 50 50;-360 50 50"></animateTransform>
</circle>
<!-- [ldio] generated by https://loading.io/ --></svg>